       A = {
            seek: "JSsetSeekPosition",
            playStream: "JSplayStream",
            toggleplay: "JStogglePlayPause",
            play: "JSplay",
            pause: "JSpause",
            togglemute: "JStoggleMute",
            getDuration: "JSgetDuration",
            getPosition: "JSgetCurrentPosition",
            getPositionUTC: "JSgetCurrentPositionUTC",
            getPositionAbs: "JSgetCurrentPositionAbs",
            getBeginLiveTime: "JSgetBeginLiveTimeUTC",
            getEndLiveTime: "JSgetEndLiveTimeUTC",
            seekabs: "JSseekAbs",
            seekutc: "JSseekUTC",
            resize: "JSsetSize",
            lock: "JSlockPlayer",
            unlock: "JSunlockPlayer",
            getVersion: "JSgetVersion",
            updateQoS: "JSsetQoSdatas",
            setAnalyticsData: "JSsetAnalyticsCustomData",
            getPlayerInfo: "JSgetPlayerInfoJSON",
            getVideoInfo: "JSgetVideoInfoJSON"
        };
